Project 1: Wrangling, Exploration, Visualization
…
# your joining code find the rows in wine which didn't have a
# match in happiness by country
wine %>% anti_join(happiness, by = c(country = "Country"))

## # A tibble: 109,282 x 15
##       X1 country description designation points price province `First Name`
##    <dbl> <chr>   <chr>       <chr>        <dbl> <dbl> <chr>    <chr>       
##  1     2 US      Tart and s <NA>            87    14 Oregon   Paul        
##  2     2 US      Tart and s <NA>            87    14 Oregon   Paul        
##  3     3 US      Pineapple  Reserve La     87    13 Michigan Alexander   
##  4     3 US      Pineapple  Reserve La     87    13 Michigan Alexander   
##  5     4 US      Much like  Vintner's      87    65 Oregon   Paul        
##  6     4 US      Much like  Vintner's      87    65 Oregon   Paul        
##  7    10 US      Soft, supp Mountain C     87    19 Califor Virginie    
##  8    10 US      Soft, supp Mountain C     87    19 Califor Virginie    
##  9    12 US      Slightly r <NA>            87    34 Califor Virginie    
## 10    12 US      Slightly r <NA>            87    34 Califor Virginie    
## #  with 109,272 more rows, and 7 more variables: `Last Name` <chr>,
## #   taster_twitter_handle <chr>, title <chr>, variety <chr>, winery <chr>,
## #   region <chr>, `region type` <chr>
…
# Aggregate the number of wine varieties
joinedData %>% group_by(variety) %>% summarize(n())

## # A tibble: 638 x 2
##    variety     `n()`
##    <chr>       <int>
##  1 Abouriou        2
##  2 Agiorgitiko    63
##  3 Aglianico     344
##  4 Aidani          1
##  5 Airen           3
##  6 Albana         23
##  7 Albanello       1
##  8 Albario      346
##  9 Albarossa       2
## 10 Aleatico        5
## #  with 628 more rows

# Find the maximum price of wine in descending order
joinedData %>% group_by(title) %>% select(title, price) %>% arrange(desc(price))

## # A tibble: 75,330 x 2
## # Groups:   title [68,489]
##    title                                          price
##    <chr>                                          <dbl>
##  1 Chteau les Ormes Sorbet 2013  Mdoc            3300
##  2 Chteau Ptrus 2014  Pomerol                    2500
##  3 Domaine du Comte Liger-Belair 2010  La Romane  2500
##  4 Chteau Ptrus 2011  Pomerol                    2000
##  5 Domaine du Comte Liger-Belair 2005  La Romane  2000
##  6 Chteau Margaux 2009  Margaux                   1900
##  7 Chteau Lafite Rothschild 2010  Pauillac        1500
##  8 Chteau Cheval Blanc 2010  Saint-milion        1500
##  9 Chteau Mouton Rothschild 2009  Pauillac        1300
## 10 Chteau Haut-Brion 2009  Pessac-Lognan         1200
## #  with 75,320 more rows
# your wrangling code find the average value for points of
# wine
joinedData %>% summarize(meanPoints = mean(points))

## # A tibble: 1 x 1
##   meanPoints
##        <dbl>
## 1       88.4

# calculate the standard deviation and standard error for the
# price of wine on a country basis
joinedData %>% group_by(country) %>% summarize(mean = mean(price, 
    na.rm = T), n = n(), sd = sd(price, na.rm = T), se = sd/sqrt(n))

## # A tibble: 41 x 5
##    country                 mean     n     sd     se
##    <chr>                  <dbl> <int>  <dbl>  <dbl>
##  1 Argentina               24.5  3800 23.4    0.380
##  2 Armenia                 14.5     2  0.707  0.5  
##  3 Australia               35.4  2329 49.0    1.02 
##  4 Austria                 30.8  3345 27.2    0.471
##  5 Bosnia and Herzegovina  12.5     2  0.707  0.5  
##  6 Brazil                  23.8    52 11.1    1.53 
##  7 Bulgaria                14.6   141  9.51   0.801
##  8 Canada                  35.7   257 19.7    1.23 
##  9 Chile                   20.8  4472 21.9    0.328
## 10 China                   18       1 NA     NA    
## #  with 31 more rows
…
